{
  "Bloomberg": {
    "domain": "bloomberg.com",
    "allow_cookies": 1,
    "block_regex": "(\\.cm\\.bloomberg\\.com\\/|assets\\.bwbx\\.io\\/s\\d\\/javelin\\/.+\\/transporter\\/)",
    "upd_version": "3.2.7.1"
  },
  "Correio do Povo": {
    "domain": "correiodopovo.com.br",
    "allow_cookies": 1,
    "block_regex": "(paywall\\.correiodopovo\\.com\\.br|cdn\\.ampproject\\.org\\/v\\d\\/amp-access-.+\\.js)",
    "upd_version": "3.4.4.7"
  },
  "Crikey.com.au": {
    "domain": "crikey.com.au",
    "block_regex": "\\.crickey\\.com\\.au\\/zephr\\/feature",
    "remove_cookies_select_drop": ["blaize_session"],
    "upd_version": "3.4.5.3"
  },
  "Defector": {
    "domain": "defector.com",
    "allow_cookies": 1,
    "block_regex": "\\/defector\\.com\\/_next\\/static\\/chunks\\/pages\\/_sites\\/%5BsiteSlug%5D\\/%5B.+\\.js",
    "upd_version": "3.4.4.5"
  },
  "Gazeta do Povo": {
    "domain": "gazetadopovo.com.br",
    "allow_cookies": 1,
    "amp_unhide": 1,
    "block_regex": "(\\.tinypass\\.com\\/|cdn\\.cxense\\.com\\/|cdn\\.ampproject\\.org\\/v\\d\\/amp-subscriptions-.+\\.js)",
    "upd_version": "3.4.4.7"
  },
  "Le Parisien": {
    "domain": "leparisien.fr",
    "allow_cookies": 1,
    "upd_version": "3.4.4.3"
  },
  "Literary Review (UK)": {
    "domain": "literaryreview.co.uk",
    "allow_cookies": 1,
    "ld_json_url": "p.subscribe-for-more|div#_articlereview",
    "upd_version": "3.4.6.3"
  },
  "The Atlantic": {
    "domain": "theatlantic.com",
    "block_regex": "cdn\\.theatlantic\\.com\\/_next\\/static\\/chunks\\/pages\\/.+\\/archive\\/",
    "remove_cookies_select_drop": ["articleViews"],
    "upd_version": "3.4.5.7"
  },
  "The Economist": {
    "domain": "economist.com",
    "allow_cookies": 1,
    "block_regex": "\\.tinypass\\.com\\/",
    "cs_code": "[{\"cond\":\"div.paywall\", \"rm_elem\": 1, \"elems\":[{\"cond\":\"svelte-scroller-outer\", \"rm_elem\": 1}, {\"cond\":\"body > style\", \"rm_elem\": 1}]}]",
    "upd_version": "3.2.7.6"
  },
  "The New York Times": {
    "domain": "nytimes.com",
    "allow_cookies": 1,
    "block_regex": "(\\.nytimes\\.com\\/meter\\.js|mwcm\\.nyt\\.com\\/.+\\.js|cooking\\.nytimes\\.com\\/api\\/.+\\/access)",
    "useragent": "googlebot",
    "upd_version": "3.1.4.0"
  },
  "TownNews sites (Blox CMS)": {
    "domain": "###_usa_townnews",
    "block_regex_general": "\\/tncms\\/api\\/access(\\..+)?\\.js",
    "cs_dompurify": 1,
    "upd_version": "3.4.1.6"
  }
}
